<?xml version="1.0" encoding="utf-8"?>
<!-- Generator: Adobe Illustrator 17.0.2, SVG Export Plug-In . SVG Version: 6.00 Build 0)  -->
<!DOCTYPE svg PUBLIC "-//W3C//DTD SVG 1.1//EN" "http://www.w3.org/Graphics/SVG/1.1/DTD/svg11.dtd">
<svg version="1.1" id="Layer_1" xmlns="http://www.w3.org/2000/svg" xmlns:xlink="http://www.w3.org/1999/xlink" x="0px" y="0px"
	 width="17px" height="23.4px" viewBox="0 0 17 23.4" enable-background="new 0 0 17 23.4" xml:space="preserve">
<path fill="#5EA557" d="M14.6,23.4H2.4C1.1,23.4,0,22.3,0,21V2.4C0,1.1,1.1,0,2.4,0h12.2C15.9,0,17,1.1,17,2.4V21
	C17,22.3,15.9,23.4,14.6,23.4L14.6,23.4z M2.4,2C2.2,2,2,2.2,2,2.4V21c0,0.2,0.2,0.4,0.4,0.4h12.2c0.2,0,0.4-0.2,0.4-0.4V2.4
	c0-0.2-0.2-0.4-0.4-0.4H2.4L2.4,2z"/>
<path fill="#5EA557" d="M12.9,7H4.2V5h8.7V7L12.9,7z"/>
<path fill="#5EA557" d="M6.5,11.4H4.2v-2h2.3V11.4L6.5,11.4z"/>
<path fill="#5EA557" d="M9.7,11.4H7.4v-2h2.3V11.4L9.7,11.4z"/>
<path fill="#5EA557" d="M12.9,11.4h-2.3v-2h2.3V11.4L12.9,11.4z"/>
<path fill="#5EA557" d="M6.5,14.3H4.2v-2h2.3V14.3L6.5,14.3z"/>
<path fill="#5EA557" d="M9.7,14.3H7.4v-2h2.3V14.3L9.7,14.3z"/>
<path fill="#5EA557" d="M12.9,14.3h-2.3v-2h2.3V14.3L12.9,14.3z"/>
<path fill="#5EA557" d="M6.5,17.2H4.2v-2h2.3V17.2L6.5,17.2z"/>
<path fill="#5EA557" d="M9.7,17.2H7.4v-2h2.3V17.2L9.7,17.2z"/>
<path fill="#5EA557" d="M12.9,17.2h-2.3v-2h2.3V17.2L12.9,17.2z"/>
</svg>
