<?xml version="1.0" encoding="utf-8"?>
<!-- Generator: Adobe Illustrator 17.0.2, SVG Export Plug-In . SVG Version: 6.00 Build 0)  -->
<!DOCTYPE svg PUBLIC "-//W3C//DTD SVG 1.1//EN" "http://www.w3.org/Graphics/SVG/1.1/DTD/svg11.dtd">
<svg version="1.1" id="Layer_1" xmlns="http://www.w3.org/2000/svg" xmlns:xlink="http://www.w3.org/1999/xlink" x="0px" y="0px"
	 width="11.7px" height="7px" viewBox="0 0 11.7 6.8" enable-background="new 0 0 11.7 6.8" xml:space="preserve">
<path fill="#989999" d="M5.8,6.8c-0.3,0-0.5-0.1-0.7-0.3L0.3,1.7c-0.4-0.4-0.4-1,0-1.4c0.4-0.4,1-0.4,1.4,0l4.1,4.1L10,0.3
	c0.4-0.4,1-0.4,1.4,0c0.4,0.4,0.4,1,0,1.4L6.5,6.5C6.4,6.7,6.1,6.8,5.8,6.8L5.8,6.8z"/>
</svg>
