<?xml version="1.0" encoding="utf-8"?>
<!-- Generator: Adobe Illustrator 17.0.2, SVG Export Plug-In . SVG Version: 6.00 Build 0)  -->
<!DOCTYPE svg PUBLIC "-//W3C//DTD SVG 1.1//EN" "http://www.w3.org/Graphics/SVG/1.1/DTD/svg11.dtd">
<svg version="1.1" id="Layer_1" xmlns="http://www.w3.org/2000/svg" xmlns:xlink="http://www.w3.org/1999/xlink" x="0px" y="0px"
	 width="18.3px" height="22.5px" viewBox="0 0 18.3 22.5" enable-background="new 0 0 18.3 22.5" xml:space="preserve">
<g>
	<path fill="#FFFFFF" d="M17.3,0H1C0.4,0,0,0.4,0,1s0.4,1,1,1h15.3v13h-5c-0.3,0-0.5,0.2-0.5,0.5v5H2v-5c0-0.6-0.4-1-1-1
		c-0.6,0-1,0.4-1,1v6c0,0.6,0.4,1,1,1h10.3c0.3,0,0.5-0.1,0.7-0.3l6-6c0.2-0.2,0.3-0.4,0.3-0.7V1C18.3,0.4,17.9,0,17.3,0z
		 M11.8,19.6V16h3.6L11.8,19.6z"/>
	<path fill="#FFFFFF" d="M2.8,10.5V3.6H1.3v6.9c0,0.7-0.4,0.9-0.8,0.9c-0.2,0-0.3,0-0.5,0v1.3c0.2,0,0.4,0,0.7,0
		C1.8,12.7,2.8,12.3,2.8,10.5z"/>
	<path fill="#FFFFFF" d="M5.8,9.3C7.3,9.3,8,8.5,8,7V5.9c0-1.5-0.7-2.2-2.1-2.2H3.7v9.1h1.4V9.3H5.8z M5.2,4.9h0.7
		c0.5,0,0.7,0.2,0.7,0.9v1.4C6.5,7.8,6.3,8,5.8,8H5.2V4.9z"/>
	<path fill="#FFFFFF" d="M12.8,6.7V5.8c0-1.5-0.7-2.3-2.1-2.3S8.5,4.3,8.5,5.8v4.7c0,1.5,0.7,2.3,2.1,2.3s2.1-0.8,2.1-2.3V7.6h-2
		v1.3h0.7v1.7c0,0.6-0.3,0.9-0.7,0.9c-0.5,0-0.7-0.2-0.7-0.9V5.7c0-0.7,0.3-0.9,0.7-0.9c0.5,0,0.7,0.2,0.7,0.9v1H12.8z"/>
</g>
</svg>
