<?xml version="1.0" encoding="utf-8"?>
<!-- Generator: Adobe Illustrator 17.0.2, SVG Export Plug-In . SVG Version: 6.00 Build 0)  -->
<!DOCTYPE svg PUBLIC "-//W3C//DTD SVG 1.1//EN" "http://www.w3.org/Graphics/SVG/1.1/DTD/svg11.dtd">
<svg version="1.1" id="Layer_1" xmlns="http://www.w3.org/2000/svg" xmlns:xlink="http://www.w3.org/1999/xlink" x="0px" y="0px"
	 width="18.4px" height="18.7px" viewBox="0 0 18.4 18.7" enable-background="new 0 0 18.4 18.7" xml:space="preserve">
<g>
	<path fill="#FFFFFF" d="M2.7,8h0.8c0-2.5,2-4.5,4.5-4.5V2.7C5.1,2.7,2.7,5.1,2.7,8z"/>
	<path fill="#FFFFFF" d="M18.2,17.3l-4.1-4.1c1.2-1.4,2-3.2,2-5.2c0-4.4-3.6-8-8-8C3.6,0,0,3.6,0,8c0,4.4,3.6,8,8,8
		c1.8,0,3.5-0.6,4.9-1.7l4.1,4.1c0.2,0.2,0.4,0.2,0.6,0.2c0.2,0,0.4-0.1,0.6-0.2C18.5,18.2,18.5,17.7,18.2,17.3z M1.6,8
		c0-3.5,2.9-6.4,6.4-6.4c3.5,0,6.4,2.9,6.4,6.4c0,3.5-2.9,6.4-6.4,6.4C4.5,14.4,1.6,11.6,1.6,8z"/>
</g>
</svg>
