<?xml version="1.0" encoding="utf-8"?>
<!-- Generator: Adobe Illustrator 17.0.2, SVG Export Plug-In . SVG Version: 6.00 Build 0)  -->
<!DOCTYPE svg PUBLIC "-//W3C//DTD SVG 1.1//EN" "http://www.w3.org/Graphics/SVG/1.1/DTD/svg11.dtd">
<svg version="1.1" id="Layer_1" xmlns="http://www.w3.org/2000/svg" xmlns:xlink="http://www.w3.org/1999/xlink" x="0px" y="0px"
	 width="17.2px" height="11.3px" viewBox="0 0 17.2 11.3" enable-background="new 0 0 17.2 11.3" xml:space="preserve">
<path fill="#FFFFFF" d="M16.8,6.1V4c0-0.1,0-0.2-0.1-0.2c-0.1-0.2-0.2-0.3-0.4-0.4L8.7,0.1C8.5,0,8.3,0,8.1,0.1L0.4,3.4
	C0.2,3.5,0,3.8,0,4.1c0,0.3,0.2,0.5,0.4,0.6l1.6,0.7v3.4c0,0.2,0.1,0.4,0.3,0.6c1.9,1.3,4,1.9,6,1.9c2.1,0,4.2-0.6,6-1.9
	c0.2-0.1,0.3-0.3,0.3-0.6V5.4l1.4-0.6v1.3c-0.2,0.1-0.3,0.3-0.3,0.6v2.4c0,0.4,0.3,0.7,0.7,0.7c0.4,0,0.7-0.3,0.7-0.7V6.7
	C17.2,6.4,17,6.2,16.8,6.1z M8.4,1.4l6,2.6l-6,2.6l-6-2.6L8.4,1.4z M13.4,8.5c-3.1,1.9-6.8,1.9-9.9,0V6l4.7,2c0.1,0,0.2,0.1,0.3,0.1
	c0.1,0,0.2,0,0.3-0.1l4.7-2V8.5z"/>
</svg>
