<?xml version="1.0" encoding="utf-8"?>
<!-- Generator: Adobe Illustrator 17.0.2, SVG Export Plug-In . SVG Version: 6.00 Build 0)  -->
<!DOCTYPE svg PUBLIC "-//W3C//DTD SVG 1.1//EN" "http://www.w3.org/Graphics/SVG/1.1/DTD/svg11.dtd">
<svg version="1.1" id="Layer_1" xmlns="http://www.w3.org/2000/svg" xmlns:xlink="http://www.w3.org/1999/xlink" x="0px" y="0px"
	 width="36.2px" height="38px" viewBox="0 0 36.2 37.5" enable-background="new 0 0 36.2 37.5" xml:space="preserve">
<path fill-rule="evenodd" clip-rule="evenodd" fill="#FFFFFF" stroke="#5EA557" stroke-width="2" stroke-miterlimit="10" d="
	M18.7,3.6c9.1,0,16.5,7.4,16.5,16.5c0,9.1-7.4,16.5-16.5,16.5S2.2,29.2,2.2,20C2.2,10.9,9.6,3.6,18.7,3.6z"/>
<path fill="#5EA557" d="M16.3,27.2c-0.2,0-0.4-0.1-0.5-0.2l-4.8-5c-0.3-0.3-0.3-0.7,0-1c0.3-0.3,0.7-0.3,1,0l4.2,4.4l10-12.2
	c0.3-0.3,0.7-0.4,1-0.1c0.3,0.3,0.4,0.7,0.1,1L16.9,26.9C16.8,27,16.6,27.1,16.3,27.2C16.4,27.2,16.4,27.2,16.3,27.2L16.3,27.2z"/>
<path fill-rule="evenodd" clip-rule="evenodd" fill="#FFFFFF" d="M8,1c4.5,0,8.1,3.6,8.1,8.1s-3.6,8.1-8.1,8.1
	c-4.5,0-8.1-3.6-8.1-8.1S3.6,1,8,1z"/>
<path fill="#DD4E4E" d="M8,15.4c-3.4,0-6.2-2.8-6.2-6.2c0-3.4,2.8-6.2,6.2-6.2c3.4,0,6.2,2.8,6.2,6.2C14.2,12.6,11.4,15.4,8,15.4
	L8,15.4z M8,4.1c-2.8,0-5.1,2.3-5.1,5.1c0,2.8,2.3,5.1,5.1,5.1c2.8,0,5.1-2.3,5.1-5.1C13.1,6.4,10.8,4.1,8,4.1L8,4.1z"/>
<path fill="#DD4E4E" d="M8,9.8c-0.3,0-0.5-0.2-0.5-0.5V5.4c0-0.3,0.2-0.5,0.5-0.5c0.3,0,0.5,0.2,0.5,0.5v3.8C8.5,9.5,8.3,9.8,8,9.8
	L8,9.8z"/>
<path fill="#DD4E4E" d="M6.4,11.4c-0.1,0-0.3-0.1-0.4-0.2c-0.2-0.2-0.2-0.5,0-0.7l1.5-1.5c0.2-0.2,0.5-0.2,0.7,0
	c0.2,0.2,0.2,0.5,0,0.7l-1.5,1.5C6.7,11.3,6.5,11.4,6.4,11.4L6.4,11.4z"/>
</svg>
