<?xml version="1.0" encoding="utf-8"?>
<!-- Generator: Adobe Illustrator 17.0.2, SVG Export Plug-In . SVG Version: 6.00 Build 0)  -->
<!DOCTYPE svg PUBLIC "-//W3C//DTD SVG 1.1//EN" "http://www.w3.org/Graphics/SVG/1.1/DTD/svg11.dtd">
<svg version="1.1" id="Layer_1" xmlns="http://www.w3.org/2000/svg" xmlns:xlink="http://www.w3.org/1999/xlink" x="0px" y="0px"
	 width="14.1px" height="14.1px" viewBox="0 0 14.1 14.1" enable-background="new 0 0 14.1 14.1" xml:space="preserve">
<path fill="#5EA557" d="M14,6.8l-1.7-2.3l0.9-2.8c0.1-0.2,0-0.5-0.1-0.6c-0.2-0.2-0.4-0.2-0.6-0.1L9.6,1.9L7.3,0.1
	C7.1,0,6.9,0,6.6,0.1C6.4,0.2,6.3,0.4,6.3,0.6l0,2.9L4,5.2C3.8,5.4,3.7,5.6,3.7,5.8c0,0.2,0.2,0.4,0.4,0.5L6.3,7l-6.1,6.1
	c-0.2,0.2-0.2,0.6,0,0.9c0.1,0.1,0.3,0.2,0.4,0.2s0.3-0.1,0.4-0.2l6.1-6.1L7.8,10c0.1,0.2,0.3,0.4,0.5,0.4c0,0,0.1,0,0.1,0
	c0.2,0,0.4-0.1,0.5-0.3l1.7-2.4l2.9,0c0.2,0,0.5-0.1,0.6-0.3C14.1,7.3,14.1,7,14,6.8z M10.3,6.5c-0.2,0-0.4,0.1-0.5,0.3L8.6,8.4
	L8,6.5C7.9,6.3,7.8,6.2,7.6,6.1L5.7,5.5l1.6-1.2c0.2-0.1,0.3-0.3,0.3-0.5l0-2L9.2,3c0.2,0.1,0.4,0.2,0.6,0.1l1.9-0.6L11,4.4
	c-0.1,0.2,0,0.4,0.1,0.6l1.2,1.6L10.3,6.5z"/>
</svg>
